\relax 
\providecommand\hyper@newdestlabel[2]{}
\providecommand\HyperFirstAtBeginDocument{\AtBeginDocument}
\HyperFirstAtBeginDocument{\ifx\hyper@anchor\@undefined
\global\let\oldcontentsline\contentsline
\gdef\contentsline#1#2#3#4{\oldcontentsline{#1}{#2}{#3}}
\global\let\oldnewlabel\newlabel
\gdef\newlabel#1#2{\newlabelxx{#1}#2}
\gdef\newlabelxx#1#2#3#4#5#6{\oldnewlabel{#1}{{#2}{#3}}}
\AtEndDocument{\ifx\hyper@anchor\@undefined
\let\contentsline\oldcontentsline
\let\newlabel\oldnewlabel
\fi}
\fi}
\global\let\hyper@last\relax 
\gdef\HyperFirstAtBeginDocument#1{#1}
\providecommand\HyField@AuxAddToFields[1]{}
\providecommand\HyField@AuxAddToCoFields[2]{}
\@writefile{toc}{\contentsline {section}{\numberline {1}\uppercase {Introduction}}{3}{section.1}}
\@writefile{toc}{\contentsline {section}{\numberline {2}\uppercase {Theory Preparation}}{3}{section.2}}
\@writefile{toc}{\contentsline {subsection}{\numberline {2.1}Bohr Model}{3}{subsection.2.1}}
\@writefile{toc}{\contentsline {subsection}{\numberline {2.2}Schr\"{o}dinger Equation for Hydrogen Atom}{4}{subsection.2.2}}
\@writefile{toc}{\contentsline {subsubsection}{\numberline {2.2.1}Orbits and degeneracy}{5}{subsubsection.2.2.1}}
\@writefile{lof}{\contentsline {figure}{\numberline {1}{\ignorespaces Radial wavefunction}}{6}{figure.1}}
\newlabel{afda1}{{1}{6}{Radial wavefunction}{figure.1}{}}
\@writefile{toc}{\contentsline {subsubsection}{\numberline {2.2.2}Probability density of the electron position}{6}{subsubsection.2.2.2}}
\@writefile{lof}{\contentsline {figure}{\numberline {2}{\ignorespaces Radial probability density}}{7}{figure.2}}
\newlabel{Fig. radialpro}{{2}{7}{Radial probability density}{figure.2}{}}
\@writefile{toc}{\contentsline {subsection}{\numberline {2.3}Corrections}{7}{subsection.2.3}}
\@writefile{lof}{\contentsline {figure}{\numberline {3}{\ignorespaces p-orbits}}{8}{figure.3}}
\newlabel{Fig. porbits}{{3}{8}{p-orbits}{figure.3}{}}
\@writefile{lof}{\contentsline {figure}{\numberline {4}{\ignorespaces d-orbits}}{9}{figure.4}}
\newlabel{Fig. dorbits}{{4}{9}{d-orbits}{figure.4}{}}
\@writefile{toc}{\contentsline {subsection}{\numberline {2.4}Selection Rules}{9}{subsection.2.4}}
\@writefile{lof}{\contentsline {figure}{\numberline {5}{\ignorespaces Fine-structure of the three lowest energy levels of atomic Hydrogen}}{10}{figure.5}}
\newlabel{Fig. finestru}{{5}{10}{Fine-structure of the three lowest energy levels of atomic Hydrogen}{figure.5}{}}
\@writefile{toc}{\contentsline {subsection}{\numberline {2.5}Line Width}{10}{subsection.2.5}}
\@writefile{lof}{\contentsline {figure}{\numberline {6}{\ignorespaces Lorentz and Gaussian profile}}{11}{figure.6}}
\newlabel{fig:6}{{6}{11}{Lorentz and Gaussian profile}{figure.6}{}}
\@writefile{toc}{\contentsline {subsection}{\numberline {2.6}Isotope Shift}{11}{subsection.2.6}}
\newlabel{Eq. memD}{{13}{12}{Isotope Shift}{equation.2.13}{}}
\newlabel{Eq. memH}{{14}{12}{Isotope Shift}{equation.2.14}{}}
\@writefile{toc}{\contentsline {section}{\numberline {3}\uppercase {Experiment}}{12}{section.3}}
\@writefile{toc}{\contentsline {subsection}{\numberline {3.1}Instrumentation}{12}{subsection.3.1}}
\@writefile{toc}{\contentsline {subsubsection}{\numberline {3.1.1}The Grating Spectrometer}{12}{subsubsection.3.1.1}}
\newlabel{Eq. Resolution and N}{{20}{13}{The Grating Spectrometer}{equation.3.20}{}}
\@writefile{toc}{\contentsline {subsubsection}{\numberline {3.1.2}Caliberation Sources}{13}{subsubsection.3.1.2}}
\@writefile{toc}{\contentsline {subsubsection}{\numberline {3.1.3}Hydroge/Deuterium Sources}{13}{subsubsection.3.1.3}}
\@writefile{toc}{\contentsline {subsubsection}{\numberline {3.1.4}Light Detector}{14}{subsubsection.3.1.4}}
\@writefile{toc}{\contentsline {subsubsection}{\numberline {3.1.5}Software}{14}{subsubsection.3.1.5}}
\@writefile{toc}{\contentsline {subsubsection}{\numberline {3.1.6}Measurement equipment}{14}{subsubsection.3.1.6}}
\@writefile{toc}{\contentsline {subsection}{\numberline {3.2}Procedure}{14}{subsection.3.2}}
\@writefile{toc}{\contentsline {section}{\numberline {4}\uppercase {Result and Analysis}}{15}{section.4}}
\@writefile{toc}{\contentsline {subsection}{\numberline {4.1}Optimization of Slit Width}{15}{subsection.4.1}}
\@writefile{lof}{\contentsline {figure}{\numberline {7}{\ignorespaces The FWHM for each slit width, with two partial linear fits. }}{16}{figure.7}}
\newlabel{Fig. Slit_Linear}{{7}{16}{The FWHM for each slit width, with two partial linear fits}{figure.7}{}}
\@writefile{toc}{\contentsline {subsection}{\numberline {4.2}Calibration}{16}{subsection.4.2}}
\@writefile{lot}{\contentsline {table}{\numberline {1}{\ignorespaces Centroid velocities read in experiments and the given values of calibration lines}}{17}{table.1}}
\newlabel{Tab. Calibration}{{1}{17}{Centroid velocities read in experiments and the given values of calibration lines}{table.1}{}}
\newlabel{Eq. Calibration}{{22}{17}{Calibration}{equation.4.22}{}}
\@writefile{lof}{\contentsline {figure}{\numberline {8}{\ignorespaces Fitting for calibration. }}{18}{figure.8}}
\newlabel{Fig. Ca_Linear}{{8}{18}{Fitting for calibration}{figure.8}{}}
\@writefile{toc}{\contentsline {subsection}{\numberline {4.3}Balmer $\alpha -,\beta -,\gamma -,\delta -$ Lines of Hydrogen and Deuterium}{19}{subsection.4.3}}
\@writefile{lof}{\contentsline {figure}{\numberline {9}{\ignorespaces The spectra with Gaussian fit of Balmer $\alpha -,\beta -,\gamma -,\delta -$ Lines of Hydrogen and Deuterium.}}{23}{figure.9}}
\newlabel{Fig. HD}{{9}{23}{The spectra with Gaussian fit of Balmer $\alpha -,\beta -,\gamma -,\delta -$ Lines of Hydrogen and Deuterium}{figure.9}{}}
\@writefile{lot}{\contentsline {table}{\numberline {2}{\ignorespaces The centroid wavelength of Balmer $\alpha -,\beta -,\gamma -,\delta -$ Lines of Hydrogen and Deuterium. Measured wavelengths are denoted as $\lambda _0$, while the calibrated are denoted as $\lambda $}}{23}{table.2}}
\newlabel{Tab. HD}{{2}{23}{The centroid wavelength of Balmer $\alpha -,\beta -,\gamma -,\delta -$ Lines of Hydrogen and Deuterium. Measured wavelengths are denoted as $\lambda _0$, while the calibrated are denoted as $\lambda $}{table.2}{}}
\@writefile{toc}{\contentsline {subsection}{\numberline {4.4}Calculation of Rydberg Constants}{24}{subsection.4.4}}
\@writefile{lot}{\contentsline {table}{\numberline {3}{\ignorespaces The Rydberg constants we calculated. }}{24}{table.3}}
\newlabel{Tab. Ry}{{3}{24}{The Rydberg constants we calculated}{table.3}{}}
\newlabel{Eq. Error Propagation}{{35}{25}{Calculation of Rydberg Constants}{equation.4.35}{}}
\@writefile{toc}{\contentsline {subsection}{\numberline {4.5}Calculation of $m_e/m_{H}$}{25}{subsection.4.5}}
\@writefile{toc}{\contentsline {subsection}{\numberline {4.6}Mass of Deuterium Atom}{25}{subsection.4.6}}
\@writefile{toc}{\contentsline {subsection}{\numberline {4.7}Calculation of $e/m_e$}{26}{subsection.4.7}}
\@writefile{toc}{\contentsline {section}{\numberline {5}\uppercase {Discussion}}{26}{section.5}}
\@writefile{toc}{\contentsline {section}{\numberline {6}\uppercase {References}}{27}{section.6}}
\@writefile{toc}{\contentsline {section}{\numberline {7}\uppercase {Exercises}}{27}{section.7}}
\@writefile{lof}{\contentsline {figure}{\numberline {10}{\ignorespaces Reflective filter}}{29}{figure.10}}
\newlabel{fig:7}{{10}{29}{Reflective filter}{figure.10}{}}
\@writefile{lof}{\contentsline {figure}{\numberline {11}{\ignorespaces Prism spectrometer}}{29}{figure.11}}
\newlabel{fig:8}{{11}{29}{Prism spectrometer}{figure.11}{}}
\@writefile{toc}{\contentsline {section}{Appendices}{31}{section*.2}}
\@writefile{toc}{\contentsline {section}{Appendix \numberline {A}{Slit Adjustment Spectra and Data}}{31}{Appendix.1.A}}
\@writefile{lof}{\contentsline {figure}{\numberline {12}{\ignorespaces The spectra with Gaussian fit for different slit width}}{37}{figure.12}}
\newlabel{Fig. Slit}{{12}{37}{The spectra with Gaussian fit for different slit width}{figure.12}{}}
\@writefile{lot}{\contentsline {table}{\numberline {4}{\ignorespaces FWHM for different slit widths. Two measurements were conducted for several slit widths, marked by \#$N$.}}{38}{table.4}}
\newlabel{Tab. Slit}{{4}{38}{FWHM for different slit widths. Two measurements were conducted for several slit widths, marked by \#$N$}{table.4}{}}
\@writefile{toc}{\contentsline {section}{Appendix \numberline {B}{Calibration Spectra and Data}}{39}{Appendix.1.B}}
\@writefile{lof}{\contentsline {figure}{\numberline {13}{\ignorespaces The calibration spectra with Gaussian fit}}{45}{figure.13}}
\newlabel{Fig. Calibration}{{13}{45}{The calibration spectra with Gaussian fit}{figure.13}{}}
