0.607 	 4044.8 	  
0.607 	 4044.9 	  
0.617 	 4045.0 	  
0.615 	 4045.1 	  
0.617 	 4045.2 	  
0.612 	 4045.3 	  
0.607 	 4045.4 	  
0.617 	 4045.5 	  
0.612 	 4045.6 	  
0.612 	 4045.7 	  
0.605 	 4045.8 	  
0.617 	 4045.9 	  
0.612 	 4046.0 	  
0.612 	 4046.1 	  
0.612 	 4046.2 	  
0.612 	 4046.3 	  
0.612 	 4046.4 	  
0.612 	 4046.5 	  
0.610 	 4046.6 	  
0.615 	 4046.7 	  
0.607 	 4046.8 	  
0.615 	 4046.9 	  
0.607 	 4047.0 	  
0.620 	 4047.1 	  
0.610 	 4047.2 	  
0.612 	 4047.3 	  
0.615 	 4047.4 	  
0.615 	 4047.5 	  
0.620 	 4047.6 	  
0.620 	 4047.7 	  
0.622 	 4047.8 	  
0.625 	 4047.9 	  
0.622 	 4048.0 	  
0.620 	 4048.1 	  
0.615 	 4048.2 	  
0.630 	 4048.3 	  
0.630 	 4048.4 	  
0.630 	 4048.5 	  
0.640 	 4048.6 	  
0.681 	 4048.7 	  
0.748 	 4048.8 	  
0.796 	 4048.9 	  
1.164 	 4049.0 	  
1.460 	 4049.1 	  
1.860 	 4049.2 	  
2.197 	 4049.3 	  
2.205 	 4049.4 	  
1.886 	 4049.5 	  
1.419 	 4049.6 	  
1.051 	 4049.7 	  
0.758 	 4049.8 	  
0.684 	 4049.9 	  
0.638 	 4050.0 	  
0.645 	 4050.1 	  
0.630 	 4050.2 	  
0.620 	 4050.3 	  
0.625 	 4050.4 	  
0.622 	 4050.5 	  
0.615 	 4050.6 	  
0.615 	 4050.7 	  
0.617 	 4050.8 	  
0.620 	 4050.9 	  
0.622 	 4051.0 	  
0.622 	 4051.1 	  
0.617 	 4051.2 	  
0.625 	 4051.3 	  
0.615 	 4051.4 	  
0.612 	 4051.5 	  
0.620 	 4051.6 	  
0.610 	 4051.7 	  
0.620 	 4051.8 	  
0.610 	 4051.9 	  
0.615 	 4052.0 	  
0.615 	 4052.1 	  
0.620 	 4052.2 	  
0.615 	 4052.3 	  
0.617 	 4052.4 	  
0.615 	 4052.5 	  
0.620 	 4052.6 	  
0.607 	 4052.7 	  
0.610 	 4052.8 	  
0.610 	 4052.9 	  
0.620 	 4053.0 	  
0.612 	 4053.1 	  
0.615 	 4053.2 	  
