0.620 	 5765.4 	  
0.615 	 5765.5 	  
0.615 	 5765.6 	  
0.620 	 5765.7 	  
0.622 	 5765.8 	  
0.615 	 5765.9 	  
0.615 	 5766.0 	  
0.620 	 5766.1 	  
0.615 	 5766.2 	  
0.612 	 5766.3 	  
0.617 	 5766.4 	  
0.620 	 5766.5 	  
0.617 	 5766.6 	  
0.610 	 5766.7 	  
0.610 	 5766.8 	  
0.615 	 5766.9 	  
0.615 	 5767.0 	  
0.610 	 5767.1 	  
0.615 	 5767.2 	  
0.615 	 5767.3 	  
0.615 	 5767.4 	  
0.607 	 5767.5 	  
0.615 	 5767.6 	  
0.610 	 5767.7 	  
0.615 	 5767.8 	  
0.615 	 5767.9 	  
0.617 	 5768.0 	  
0.610 	 5768.1 	  
0.622 	 5768.2 	  
0.615 	 5768.3 	  
0.615 	 5768.4 	  
0.612 	 5768.5 	  
0.612 	 5768.6 	  
0.612 	 5768.7 	  
0.622 	 5768.8 	  
0.612 	 5768.9 	  
0.622 	 5769.0 	  
0.622 	 5769.1 	  
0.617 	 5769.2 	  
0.617 	 5769.3 	  
0.612 	 5769.4 	  
0.617 	 5769.5 	  
0.612 	 5769.6 	  
0.617 	 5769.7 	  
0.617 	 5769.8 	  
0.622 	 5769.9 	  
0.620 	 5770.0 	  
0.615 	 5770.1 	  
0.612 	 5770.2 	  
0.615 	 5770.3 	  
0.615 	 5770.4 	  
0.620 	 5770.5 	  
0.628 	 5770.6 	  
0.630 	 5770.7 	  
0.625 	 5770.8 	  
0.630 	 5770.9 	  
0.625 	 5771.0 	  
0.628 	 5771.1 	  
0.628 	 5771.2 	  
0.633 	 5771.3 	  
0.628 	 5771.4 	  
0.630 	 5771.5 	  
0.638 	 5771.6 	  
0.651 	 5771.7 	  
0.651 	 5771.8 	  
0.656 	 5771.9 	  
0.666 	 5772.0 	  
0.684 	 5772.1 	  
0.712 	 5772.2 	  
0.740 	 5772.3 	  
0.781 	 5772.4 	  
0.875 	 5772.5 	  
0.921 	 5772.6 	  
1.120 	 5772.7 	  
1.248 	 5772.8 	  
1.375 	 5772.9 	  
1.516 	 5773.0 	  
1.493 	 5773.1 	  
1.434 	 5773.2 	  
1.179 	 5773.3 	  
1.077 	 5773.4 	  
0.921 	 5773.5 	  
0.827 	 5773.6 	  
0.748 	 5773.7 	  
0.712 	 5773.8 	  
0.684 	 5773.9 	  
0.671 	 5774.0 	  
0.658 	 5774.1 	  
0.651 	 5774.2 	  
0.645 	 5774.3 	  
0.635 	 5774.4 	  
0.635 	 5774.5 	  
0.640 	 5774.6 	  
0.638 	 5774.7 	  
0.628 	 5774.8 	  
0.633 	 5774.9 	  
0.628 	 5775.0 	  
0.617 	 5775.1 	  
0.625 	 5775.2 	  
0.617 	 5775.3 	  
0.625 	 5775.4 	  
0.615 	 5775.5 	  
0.622 	 5775.6 	  
0.625 	 5775.7 	  
0.617 	 5775.8 	  
0.620 	 5775.9 	  
0.625 	 5776.0 	  
0.617 	 5776.1 	  
0.620 	 5776.2 	  
0.625 	 5776.3 	  
0.612 	 5776.4 	  
0.622 	 5776.5 	  
0.615 	 5776.6 	  
0.610 	 5776.7 	  
0.617 	 5776.8 	  
0.617 	 5776.9 	  
0.615 	 5777.0 	  
0.615 	 5777.1 	  
0.617 	 5777.2 	  
0.615 	 5777.3 	  
0.617 	 5777.4 	  
0.615 	 5777.5 	  
0.612 	 5777.6 	  
0.617 	 5777.7 	  
0.615 	 5777.8 	  
0.610 	 5777.9 	  
0.615 	 5778.0 	  
0.610 	 5778.1 	  
0.615 	 5778.2 	  
0.610 	 5778.3 	  
0.617 	 5778.4 	  
0.615 	 5778.5 	  
0.615 	 5778.6 	  
0.615 	 5778.7 	  
0.615 	 5778.8 	  
0.622 	 5778.9 	  
0.615 	 5779.0 	  
0.622 	 5779.1 	  
0.617 	 5779.2 	  
0.610 	 5779.3 	  
0.612 	 5779.4 	  
0.615 	 5779.5 	  
0.610 	 5779.6 	  
0.620 	 5779.7 	  
0.622 	 5779.8 	  
0.615 	 5779.9 	  
0.610 	 5780.0 	  
0.615 	 5780.1 	  
0.610 	 5780.2 	  
0.610 	 5780.3 	  
0.610 	 5780.4 	  
