0.658 	 5765.8 	  
0.658 	 5765.9 	  
0.666 	 5766.0 	  
0.663 	 5766.1 	  
0.658 	 5766.2 	  
0.658 	 5766.3 	  
0.666 	 5766.4 	  
0.661 	 5766.5 	  
0.666 	 5766.6 	  
0.666 	 5766.7 	  
0.658 	 5766.8 	  
0.658 	 5766.9 	  
0.658 	 5767.0 	  
0.666 	 5767.1 	  
0.658 	 5767.2 	  
0.658 	 5767.3 	  
0.661 	 5767.4 	  
0.656 	 5767.5 	  
0.656 	 5767.6 	  
0.666 	 5767.7 	  
0.661 	 5767.8 	  
0.661 	 5767.9 	  
0.661 	 5768.0 	  
0.661 	 5768.1 	  
0.653 	 5768.2 	  
0.666 	 5768.3 	  
0.663 	 5768.4 	  
0.661 	 5768.5 	  
0.656 	 5768.6 	  
0.668 	 5768.7 	  
0.666 	 5768.8 	  
0.663 	 5768.9 	  
0.663 	 5769.0 	  
0.656 	 5769.1 	  
0.668 	 5769.2 	  
0.663 	 5769.3 	  
0.663 	 5769.4 	  
0.666 	 5769.5 	  
0.661 	 5769.6 	  
0.663 	 5769.7 	  
0.666 	 5769.8 	  
0.666 	 5769.9 	  
0.666 	 5770.0 	  
0.666 	 5770.1 	  
0.668 	 5770.2 	  
0.671 	 5770.3 	  
0.666 	 5770.4 	  
0.671 	 5770.5 	  
0.674 	 5770.6 	  
0.676 	 5770.7 	  
0.684 	 5770.8 	  
0.679 	 5770.9 	  
0.676 	 5771.0 	  
0.686 	 5771.1 	  
0.689 	 5771.2 	  
0.694 	 5771.3 	  
0.704 	 5771.4 	  
0.714 	 5771.5 	  
0.717 	 5771.6 	  
0.735 	 5771.7 	  
0.748 	 5771.8 	  
0.755 	 5771.9 	  
0.771 	 5772.0 	  
0.816 	 5772.1 	  
0.842 	 5772.2 	  
0.906 	 5772.3 	  
0.972 	 5772.4 	  
1.069 	 5772.5 	  
1.151 	 5772.6 	  
1.291 	 5772.7 	  
1.381 	 5772.8 	  
1.447 	 5772.9 	  
1.442 	 5773.0 	  
1.391 	 5773.1 	  
1.296 	 5773.2 	  
1.136 	 5773.3 	  
1.082 	 5773.4 	  
0.936 	 5773.5 	  
0.857 	 5773.6 	  
0.811 	 5773.7 	  
0.771 	 5773.8 	  
0.745 	 5773.9 	  
0.737 	 5774.0 	  
0.712 	 5774.1 	  
0.707 	 5774.2 	  
0.699 	 5774.3 	  
0.691 	 5774.4 	  
0.689 	 5774.5 	  
0.684 	 5774.6 	  
0.684 	 5774.7 	  
0.676 	 5774.8 	  
0.676 	 5774.9 	  
0.676 	 5775.0 	  
0.666 	 5775.1 	  
0.674 	 5775.2 	  
0.671 	 5775.3 	  
0.671 	 5775.4 	  
0.676 	 5775.5 	  
0.668 	 5775.6 	  
0.666 	 5775.7 	  
0.666 	 5775.8 	  
0.666 	 5775.9 	  
0.661 	 5776.0 	  
0.671 	 5776.1 	  
0.661 	 5776.2 	  
0.666 	 5776.3 	  
0.671 	 5776.4 	  
0.663 	 5776.5 	  
0.663 	 5776.6 	  
0.661 	 5776.7 	  
0.661 	 5776.8 	  
0.656 	 5776.9 	  
0.663 	 5777.0 	  
0.658 	 5777.1 	  
0.656 	 5777.2 	  
0.661 	 5777.3 	  
0.661 	 5777.4 	  
0.656 	 5777.5 	  
0.656 	 5777.6 	  
0.666 	 5777.7 	  
0.661 	 5777.8 	  
0.666 	 5777.9 	  
0.656 	 5778.0 	  
0.658 	 5778.1 	  
0.661 	 5778.2 	  
0.658 	 5778.3 	  
0.658 	 5778.4 	  
0.666 	 5778.5 	  
0.658 	 5778.6 	  
0.661 	 5778.7 	  
0.656 	 5778.8 	  
0.658 	 5778.9 	  
0.661 	 5779.0 	  
0.658 	 5779.1 	  
0.663 	 5779.2 	  
0.661 	 5779.3 	  
0.656 	 5779.4 	  
0.658 	 5779.5 	  
0.658 	 5779.6 	  
0.658 	 5779.7 	  
0.653 	 5779.8 	  
0.658 	 5779.9 	  
0.653 	 5780.0 	  
0.656 	 5780.1 	  
0.658 	 5780.2 	  
0.658 	 5780.3 	  
0.658 	 5780.4 	  
0.658 	 5780.5 	  
0.666 	 5780.6 	  
0.658 	 5780.7 	  
0.653 	 5780.8 	  
0.666 	 5780.9 	  
0.658 	 5781.0 	  
0.658 	 5781.1 	  
0.658 	 5781.2 	  
0.666 	 5781.3 	  
