0.610 	 5765.8
0.615 	 5765.9
0.610 	 5766.0
0.615 	 5766.1
0.610 	 5766.2
0.615 	 5766.3
0.615 	 5766.4
0.615 	 5766.5
0.615 	 5766.6
0.610 	 5766.7
0.610 	 5766.8
0.615 	 5766.9
0.610 	 5767.0
0.615 	 5767.1
0.622 	 5767.2
0.615 	 5767.3
0.610 	 5767.4
0.617 	 5767.5
0.622 	 5767.6
0.617 	 5767.7
0.617 	 5767.8
0.620 	 5767.9
0.617 	 5768.0
0.620 	 5768.1
0.628 	 5768.2
0.620 	 5768.3
0.620 	 5768.4
0.622 	 5768.5
0.615 	 5768.6
0.622 	 5768.7
0.622 	 5768.8
0.625 	 5768.9
0.625 	 5769.0
0.625 	 5769.1
0.633 	 5769.2
0.628 	 5769.3
0.625 	 5769.4
0.622 	 5769.5
0.625 	 5769.6
0.633 	 5769.7
0.635 	 5769.8
0.638 	 5769.9
0.638 	 5770.0
0.640 	 5770.1
0.643 	 5770.2
0.638 	 5770.3
0.645 	 5770.4
0.656 	 5770.5
0.663 	 5770.6
0.666 	 5770.7
0.681 	 5770.8
0.684 	 5770.9
0.704 	 5771.0
0.709 	 5771.1
0.732 	 5771.2
0.755 	 5771.3
0.796 	 5771.4
0.837 	 5771.5
0.942 	 5771.6
1.013 	 5771.7
1.159 	 5771.8
1.256 	 5771.9
1.516 	 5772.0
1.659 	 5772.1
1.825 	 5772.2
1.909 	 5772.3
1.975 	 5772.4
1.937 	 5772.5
1.845 	 5772.6
1.769 	 5772.7
1.488 	 5772.8
1.309 	 5772.9
1.153 	 5773.0
1.056 	 5773.1
0.936 	 5773.2
0.890 	 5773.3
0.827 	 5773.4
0.786 	 5773.5
0.742 	 5773.6
0.727 	 5773.7
0.699 	 5773.8
0.696 	 5773.9
0.684 	 5774.0
0.674 	 5774.1
0.666 	 5774.2
0.656 	 5774.3
0.656 	 5774.4
0.643 	 5774.5
0.638 	 5774.6
0.638 	 5774.7
0.638 	 5774.8
0.630 	 5774.9
0.635 	 5775.0
0.635 	 5775.1
0.625 	 5775.2
0.635 	 5775.3
0.628 	 5775.4
0.620 	 5775.5
0.628 	 5775.6
0.622 	 5775.7
0.628 	 5775.8
0.630 	 5775.9
0.620 	 5776.0
0.620 	 5776.1
0.612 	 5776.2
0.615 	 5776.3
0.625 	 5776.4
0.612 	 5776.5
0.625 	 5776.6
0.615 	 5776.7
0.622 	 5776.8
0.622 	 5776.9
0.612 	 5777.0
0.612 	 5777.1
0.622 	 5777.2
0.615 	 5777.3
0.615 	 5777.4
0.615 	 5777.5
0.607 	 5777.6
0.610 	 5777.7
0.615 	 5777.8
0.620 	 5777.9
0.620 	 5778.0
0.620 	 5778.1
0.607 	 5778.2
0.615 	 5778.3
0.610 	 5778.4
