0.661 	 5765.6 	  
0.653 	 5765.7 	  
0.661 	 5765.8 	  
0.658 	 5765.9 	  
0.656 	 5766.0 	  
0.656 	 5766.1 	  
0.666 	 5766.2 	  
0.661 	 5766.3 	  
0.666 	 5766.4 	  
0.656 	 5766.5 	  
0.656 	 5766.6 	  
0.663 	 5766.7 	  
0.661 	 5766.8 	  
0.656 	 5766.9 	  
0.653 	 5767.0 	  
0.663 	 5767.1 	  
0.653 	 5767.2 	  
0.663 	 5767.3 	  
0.661 	 5767.4 	  
0.666 	 5767.5 	  
0.663 	 5767.6 	  
0.668 	 5767.7 	  
0.661 	 5767.8 	  
0.663 	 5767.9 	  
0.663 	 5768.0 	  
0.668 	 5768.1 	  
0.656 	 5768.2 	  
0.661 	 5768.3 	  
0.666 	 5768.4 	  
0.666 	 5768.5 	  
0.671 	 5768.6 	  
0.666 	 5768.7 	  
0.661 	 5768.8 	  
0.674 	 5768.9 	  
0.671 	 5769.0 	  
0.668 	 5769.1 	  
0.668 	 5769.2 	  
0.663 	 5769.3 	  
0.674 	 5769.4 	  
0.668 	 5769.5 	  
0.668 	 5769.6 	  
0.671 	 5769.7 	  
0.676 	 5769.8 	  
0.671 	 5769.9 	  
0.666 	 5770.0 	  
0.674 	 5770.1 	  
0.676 	 5770.2 	  
0.684 	 5770.3 	  
0.679 	 5770.4 	  
0.684 	 5770.5 	  
0.679 	 5770.6 	  
0.684 	 5770.7 	  
0.681 	 5770.8 	  
0.691 	 5770.9 	  
0.686 	 5771.0 	  
0.694 	 5771.1 	  
0.696 	 5771.2 	  
0.712 	 5771.3 	  
0.717 	 5771.4 	  
0.737 	 5771.5 	  
0.748 	 5771.6 	  
0.760 	 5771.7 	  
0.793 	 5771.8 	  
0.811 	 5771.9 	  
0.865 	 5772.0 	  
0.893 	 5772.1 	  
0.987 	 5772.2 	  
1.064 	 5772.3 	  
1.220 	 5772.4 	  
1.345 	 5772.5 	  
1.541 	 5772.6 	  
1.646 	 5772.7 	  
1.763 	 5772.8 	  
1.786 	 5772.9 	  
1.707 	 5773.0 	  
1.605 	 5773.1 	  
1.450 	 5773.2 	  
1.263 	 5773.3 	  
1.092 	 5773.4 	  
0.977 	 5773.5 	  
0.885 	 5773.6 	  
0.832 	 5773.7 	  
0.786 	 5773.8 	  
0.781 	 5773.9 	  
0.740 	 5774.0 	  
0.745 	 5774.1 	  
0.725 	 5774.2 	  
0.717 	 5774.3 	  
0.712 	 5774.4 	  
0.694 	 5774.5 	  
0.702 	 5774.6 	  
0.691 	 5774.7 	  
0.686 	 5774.8 	  
0.684 	 5774.9 	  
0.686 	 5775.0 	  
0.684 	 5775.1 	  
0.676 	 5775.2 	  
0.668 	 5775.3 	  
0.674 	 5775.4 	  
0.676 	 5775.5 	  
0.671 	 5775.6 	  
0.671 	 5775.7 	  
0.663 	 5775.8 	  
0.674 	 5775.9 	  
0.666 	 5776.0 	  
0.666 	 5776.1 	  
0.658 	 5776.2 	  
0.666 	 5776.3 	  
0.671 	 5776.4 	  
0.666 	 5776.5 	  
0.666 	 5776.6 	  
0.666 	 5776.7 	  
0.671 	 5776.8 	  
0.668 	 5776.9 	  
0.663 	 5777.0 	  
0.661 	 5777.1 	  
0.661 	 5777.2 	  
0.666 	 5777.3 	  
0.668 	 5777.4 	  
0.668 	 5777.5 	  
0.663 	 5777.6 	  
0.656 	 5777.7 	  
0.661 	 5777.8 	  
0.666 	 5777.9 	  
0.661 	 5778.0 	  
0.663 	 5778.1 	  
